%YAML 1.1
%TAG !u! tag:unity3d.com,2011:
--- !u!74 &7400000
AnimationClip:
  m_ObjectHideFlags: 0
  m_PrefabParentObject: {fileID: 0}
  m_PrefabInternal: {fileID: 0}
  m_Name: Yellowbird_clip
  serializedVersion: 6
  m_Legacy: 0
  m_Compressed: 0
  m_UseHighQualityCurve: 1
  m_RotationCurves: []
  m_CompressedRotationCurves: []
  m_EulerCurves: []
  m_PositionCurves: []
  m_ScaleCurves: []
  m_FloatCurves: []
  m_PPtrCurves:
  - curve:
    - time: 0
      value: {fileID: 21300000, guid: bcd67ba218b34984096efff1284c18d6, type: 3}
    - time: 0.0625
      value: {fileID: 21300002, guid: bcd67ba218b34984096efff1284c18d6, type: 3}
    - time: 0.125
      value: {fileID: 21300004, guid: bcd67ba218b34984096efff1284c18d6, type: 3}
    - time: 0.1875
      value: {fileID: 21300006, guid: bcd67ba218b34984096efff1284c18d6, type: 3}
    - time: 0.25
      value: {fileID: 21300008, guid: bcd67ba218b34984096efff1284c18d6, type: 3}
    - time: 0.3125
      value: {fileID: 21300010, guid: bcd67ba218b34984096efff1284c18d6, type: 3}
    - time: 0.375
      value: {fileID: 21300012, guid: bcd67ba218b34984096efff1284c18d6, type: 3}
    - time: 0.4375
      value: {fileID: 21300014, guid: bcd67ba218b34984096efff1284c18d6, type: 3}
    - time: 0.5
      value: {fileID: 21300016, guid: bcd67ba218b34984096efff1284c18d6, type: 3}
    - time: 0.5625
      value: {fileID: 21300018, guid: bcd67ba218b34984096efff1284c18d6, type: 3}
    - time: 0.625
      value: {fileID: 21300020, guid: bcd67ba218b34984096efff1284c18d6, type: 3}
    - time: 0.6875
      value: {fileID: 21300022, guid: bcd67ba218b34984096efff1284c18d6, type: 3}
    - time: 0.75
      value: {fileID: 21300024, guid: bcd67ba218b34984096efff1284c18d6, type: 3}
    - time: 0.8125
      value: {fileID: 21300026, guid: bcd67ba218b34984096efff1284c18d6, type: 3}
    - time: 0.875
      value: {fileID: 21300028, guid: bcd67ba218b34984096efff1284c18d6, type: 3}
    - time: 0.9375
      value: {fileID: 21300030, guid: bcd67ba218b34984096efff1284c18d6, type: 3}
    - time: 1
      value: {fileID: 21300032, guid: bcd67ba218b34984096efff1284c18d6, type: 3}
    - time: 1.0625
      value: {fileID: 21300034, guid: bcd67ba218b34984096efff1284c18d6, type: 3}
    - time: 1.125
      value: {fileID: 21300036, guid: bcd67ba218b34984096efff1284c18d6, type: 3}
    - time: 1.1875
      value: {fileID: 21300038, guid: bcd67ba218b34984096efff1284c18d6, type: 3}
    - time: 1.25
      value: {fileID: 21300040, guid: bcd67ba218b34984096efff1284c18d6, type: 3}
    - time: 1.3125
      value: {fileID: 21300042, guid: bcd67ba218b34984096efff1284c18d6, type: 3}
    - time: 1.375
      value: {fileID: 21300044, guid: bcd67ba218b34984096efff1284c18d6, type: 3}
    - time: 1.4375
      value: {fileID: 21300046, guid: bcd67ba218b34984096efff1284c18d6, type: 3}
    - time: 1.5
      value: {fileID: 21300048, guid: bcd67ba218b34984096efff1284c18d6, type: 3}
    - time: 1.5625
      value: {fileID: 21300050, guid: bcd67ba218b34984096efff1284c18d6, type: 3}
    - time: 1.625
      value: {fileID: 21300052, guid: bcd67ba218b34984096efff1284c18d6, type: 3}
    - time: 1.6875
      value: {fileID: 21300054, guid: bcd67ba218b34984096efff1284c18d6, type: 3}
    - time: 1.75
      value: {fileID: 21300056, guid: bcd67ba218b34984096efff1284c18d6, type: 3}
    - time: 1.8125
      value: {fileID: 21300058, guid: bcd67ba218b34984096efff1284c18d6, type: 3}
    - time: 1.875
      value: {fileID: 21300060, guid: bcd67ba218b34984096efff1284c18d6, type: 3}
    - time: 1.9375
      value: {fileID: 21300062, guid: bcd67ba218b34984096efff1284c18d6, type: 3}
    attribute: m_Sprite
    path: 
    classID: 212
    script: {fileID: 0}
  m_SampleRate: 16
  m_WrapMode: 0
  m_Bounds:
    m_Center: {x: 0, y: 0, z: 0}
    m_Extent: {x: 0, y: 0, z: 0}
  m_ClipBindingConstant:
    genericBindings:
    - serializedVersion: 2
      path: 0
      attribute: 0
      script: {fileID: 0}
      typeID: 212
      customType: 23
      isPPtrCurve: 1
    pptrCurveMapping:
    - {fileID: 21300000, guid: bcd67ba218b34984096efff1284c18d6, type: 3}
    - {fileID: 21300002, guid: bcd67ba218b34984096efff1284c18d6, type: 3}
    - {fileID: 21300004, guid: bcd67ba218b34984096efff1284c18d6, type: 3}
    - {fileID: 21300006, guid: bcd67ba218b34984096efff1284c18d6, type: 3}
    - {fileID: 21300008, guid: bcd67ba218b34984096efff1284c18d6, type: 3}
    - {fileID: 21300010, guid: bcd67ba218b34984096efff1284c18d6, type: 3}
    - {fileID: 21300012, guid: bcd67ba218b34984096efff1284c18d6, type: 3}
    - {fileID: 21300014, guid: bcd67ba218b34984096efff1284c18d6, type: 3}
    - {fileID: 21300016, guid: bcd67ba218b34984096efff1284c18d6, type: 3}
    - {fileID: 21300018, guid: bcd67ba218b34984096efff1284c18d6, type: 3}
    - {fileID: 21300020, guid: bcd67ba218b34984096efff1284c18d6, type: 3}
    - {fileID: 21300022, guid: bcd67ba218b34984096efff1284c18d6, type: 3}
    - {fileID: 21300024, guid: bcd67ba218b34984096efff1284c18d6, type: 3}
    - {fileID: 21300026, guid: bcd67ba218b34984096efff1284c18d6, type: 3}
    - {fileID: 21300028, guid: bcd67ba218b34984096efff1284c18d6, type: 3}
    - {fileID: 21300030, guid: bcd67ba218b34984096efff1284c18d6, type: 3}
    - {fileID: 21300032, guid: bcd67ba218b34984096efff1284c18d6, type: 3}
    - {fileID: 21300034, guid: bcd67ba218b34984096efff1284c18d6, type: 3}
    - {fileID: 21300036, guid: bcd67ba218b34984096efff1284c18d6, type: 3}
    - {fileID: 21300038, guid: bcd67ba218b34984096efff1284c18d6, type: 3}
    - {fileID: 21300040, guid: bcd67ba218b34984096efff1284c18d6, type: 3}
    - {fileID: 21300042, guid: bcd67ba218b34984096efff1284c18d6, type: 3}
    - {fileID: 21300044, guid: bcd67ba218b34984096efff1284c18d6, type: 3}
    - {fileID: 21300046, guid: bcd67ba218b34984096efff1284c18d6, type: 3}
    - {fileID: 21300048, guid: bcd67ba218b34984096efff1284c18d6, type: 3}
    - {fileID: 21300050, guid: bcd67ba218b34984096efff1284c18d6, type: 3}
    - {fileID: 21300052, guid: bcd67ba218b34984096efff1284c18d6, type: 3}
    - {fileID: 21300054, guid: bcd67ba218b34984096efff1284c18d6, type: 3}
    - {fileID: 21300056, guid: bcd67ba218b34984096efff1284c18d6, type: 3}
    - {fileID: 21300058, guid: bcd67ba218b34984096efff1284c18d6, type: 3}
    - {fileID: 21300060, guid: bcd67ba218b34984096efff1284c18d6, type: 3}
    - {fileID: 21300062, guid: bcd67ba218b34984096efff1284c18d6, type: 3}
  m_AnimationClipSettings:
    serializedVersion: 2
    m_AdditiveReferencePoseClip: {fileID: 0}
    m_AdditiveReferencePoseTime: 0
    m_StartTime: 0
    m_StopTime: 2
    m_OrientationOffsetY: 0
    m_Level: 0
    m_CycleOffset: 0
    m_HasAdditiveReferencePose: 0
    m_LoopTime: 1
    m_LoopBlend: 0
    m_LoopBlendOrientation: 0
    m_LoopBlendPositionY: 0
    m_LoopBlendPositionXZ: 0
    m_KeepOriginalOrientation: 0
    m_KeepOriginalPositionY: 1
    m_KeepOriginalPositionXZ: 0
    m_HeightFromFeet: 0
    m_Mirror: 0
  m_EditorCurves: []
  m_EulerEditorCurves: []
  m_HasGenericRootTransform: 0
  m_HasMotionFloatCurves: 0
  m_GenerateMotionCurves: 0
  m_Events: []
